%YAML 1.1
%TAG !u! tag:unity3d.com,2011:
--- !u!29 &1
OcclusionCullingSettings:
  m_ObjectHideFlags: 0
  serializedVersion: 2
  m_OcclusionBakeSettings:
    smallestOccluder: 5
    smallestHole: 0.25
    backfaceThreshold: 100
  m_SceneGUID: 00000000000000000000000000000000
  m_OcclusionCullingData: {fileID: 0}
--- !u!104 &2
RenderSettings:
  m_ObjectHideFlags: 0
  serializedVersion: 9
  m_Fog: 0
  m_FogColor: {r: 0.5, g: 0.5, b: 0.5, a: 1}
  m_FogMode: 3
  m_FogDensity: 0.01
  m_LinearFogStart: 0
  m_LinearFogEnd: 300
  m_AmbientSkyColor: {r: 1, g: 1, b: 1, a: 1}
  m_AmbientEquatorColor: {r: 0.114, g: 0.125, b: 0.133, a: 1}
  m_AmbientGroundColor: {r: 0.047, g: 0.043, b: 0.035, a: 1}
  m_AmbientIntensity: 1
  m_AmbientMode: 3
  m_SubtractiveShadowColor: {r: 0.42, g: 0.478, b: 0.627, a: 1}
  m_SkyboxMaterial: {fileID: 10304, guid: 0000000000000000f000000000000000, type: 0}
  m_HaloStrength: 0.5
  m_FlareStrength: 1
  m_FlareFadeSpeed: 3
  m_HaloTexture: {fileID: 0}
  m_SpotCookie: {fileID: 10001, guid: 0000000000000000e000000000000000, type: 0}
  m_DefaultReflectionMode: 0
  m_DefaultReflectionResolution: 128
  m_ReflectionBounces: 1
  m_ReflectionIntensity: 1
  m_CustomReflection: {fileID: 0}
  m_Sun: {fileID: 0}
  m_IndirectSpecularColor: {r: 0.12731749, g: 0.13414757, b: 0.1210787, a: 1}
  m_UseRadianceAmbientProbe: 0
--- !u!157 &3
LightmapSettings:
  m_ObjectHideFlags: 0
  serializedVersion: 11
  m_GIWorkflowMode: 0
  m_GISettings:
    serializedVersion: 2
    m_BounceScale: 1
    m_IndirectOutputScale: 1
    m_AlbedoBoost: 1
    m_TemporalCoherenceThreshold: 1
    m_EnvironmentLightingMode: 0
    m_EnableBakedLightmaps: 1
    m_EnableRealtimeLightmaps: 1
  m_LightmapEditorSettings:
    serializedVersion: 10
    m_Resolution: 2
    m_BakeResolution: 40
    m_AtlasSize: 1024
    m_AO: 0
    m_AOMaxDistance: 1
    m_CompAOExponent: 1
    m_CompAOExponentDirect: 0
    m_Padding: 2
    m_LightmapParameters: {fileID: 0}
    m_LightmapsBakeMode: 1
    m_TextureCompression: 1
    m_FinalGather: 0
    m_FinalGatherFiltering: 1
    m_FinalGatherRayCount: 256
    m_ReflectionCompression: 2
    m_MixedBakeMode: 2
    m_BakeBackend: 1
    m_PVRSampling: 1
    m_PVRDirectSampleCount: 32
    m_PVRSampleCount: 500
    m_PVRBounces: 2
    m_PVRFilterTypeDirect: 0
    m_PVRFilterTypeIndirect: 0
    m_PVRFilterTypeAO: 0
    m_PVRFilteringMode: 1
    m_PVRCulling: 1
    m_PVRFilteringGaussRadiusDirect: 1
    m_PVRFilteringGaussRadiusIndirect: 5
    m_PVRFilteringGaussRadiusAO: 2
    m_PVRFilteringAtrousPositionSigmaDirect: 0.5
    m_PVRFilteringAtrousPositionSigmaIndirect: 2
    m_PVRFilteringAtrousPositionSigmaAO: 1
    m_ShowResolutionOverlay: 1
  m_LightingDataAsset: {fileID: 0}
  m_UseShadowmask: 1
--- !u!196 &4
NavMeshSettings:
  serializedVersion: 2
  m_ObjectHideFlags: 0
  m_BuildSettings:
    serializedVersion: 2
    agentTypeID: 0
    agentRadius: 0.5
    agentHeight: 2
    agentSlope: 45
    agentClimb: 0.4
    ledgeDropHeight: 0
    maxJumpAcrossDistance: 0
    minRegionArea: 2
    manualCellSize: 0
    cellSize: 0.16666667
    manualTileSize: 0
    tileSize: 256
    accuratePlacement: 0
    debug:
      m_Flags: 0
  m_NavMeshData: {fileID: 0}
--- !u!1001 &1174704051
Prefab:
  m_ObjectHideFlags: 0
  serializedVersion: 2
  m_Modification:
    m_TransformParent: {fileID: 0}
    m_Modifications:
    - target: {fileID: 4100625401426696, guid: cd7937a48cbb94910a10732157cffe2a, type: 2}
      propertyPath: m_LocalPosition.x
      value: 0
      objectReference: {fileID: 0}
    - target: {fileID: 4100625401426696, guid: cd7937a48cbb94910a10732157cffe2a, type: 2}
      propertyPath: m_LocalPosition.y
      value: 150
      objectReference: {fileID: 0}
    - target: {fileID: 4100625401426696, guid: cd7937a48cbb94910a10732157cffe2a, type: 2}
      propertyPath: m_LocalPosition.z
      value: 500
      objectReference: {fileID: 0}
    - target: {fileID: 4100625401426696, guid: cd7937a48cbb94910a10732157cffe2a, type: 2}
      propertyPath: m_LocalRotation.x
      value: 0
      objectReference: {fileID: 0}
    - target: {fileID: 4100625401426696, guid: cd7937a48cbb94910a10732157cffe2a, type: 2}
      propertyPath: m_LocalRotation.y
      value: 0
      objectReference: {fileID: 0}
    - target: {fileID: 4100625401426696, guid: cd7937a48cbb94910a10732157cffe2a, type: 2}
      propertyPath: m_LocalRotation.z
      value: 0
      objectReference: {fileID: 0}
    - target: {fileID: 4100625401426696, guid: cd7937a48cbb94910a10732157cffe2a, type: 2}
      propertyPath: m_LocalRotation.w
      value: 1
      objectReference: {fileID: 0}
    - target: {fileID: 4100625401426696, guid: cd7937a48cbb94910a10732157cffe2a, type: 2}
      propertyPath: m_RootOrder
      value: 2
      objectReference: {fileID: 0}
    - target: {fileID: 4100625401426696, guid: cd7937a48cbb94910a10732157cffe2a, type: 2}
      propertyPath: m_LocalEulerAnglesHint.x
      value: 0
      objectReference: {fileID: 0}
    - target: {fileID: 4100625401426696, guid: cd7937a48cbb94910a10732157cffe2a, type: 2}
      propertyPath: m_LocalScale.y
      value: 200
      objectReference: {fileID: 0}
    - target: {fileID: 4100625401426696, guid: cd7937a48cbb94910a10732157cffe2a, type: 2}
      propertyPath: m_LocalEulerAnglesHint.y
      value: 0
      objectReference: {fileID: 0}
    - target: {fileID: 4100625401426696, guid: cd7937a48cbb94910a10732157cffe2a, type: 2}
      propertyPath: m_LocalScale.x
      value: 15
      objectReference: {fileID: 0}
    - target: {fileID: 23424784646718622, guid: cd7937a48cbb94910a10732157cffe2a,
        type: 2}
      propertyPath: m_Materials.Array.data[0]
      value: 
      objectReference: {fileID: 2100000, guid: 14194c5b6f75c4f4085ad828b1a89904, type: 2}
    m_RemovedComponents: []
  m_ParentPrefab: {fileID: 100100000, guid: cd7937a48cbb94910a10732157cffe2a, type: 2}
  m_IsPrefabParent: 0
--- !u!1001 &1422466528
Prefab:
  m_ObjectHideFlags: 0
  serializedVersion: 2
  m_Modification:
    m_TransformParent: {fileID: 0}
    m_Modifications:
    - target: {fileID: 4833440451213438, guid: 4ffaa291e78a048ca992daa089e91cb8, type: 2}
      propertyPath: m_LocalPosition.x
      value: 0
      objectReference: {fileID: 0}
    - target: {fileID: 4833440451213438, guid: 4ffaa291e78a048ca992daa089e91cb8, type: 2}
      propertyPath: m_LocalPosition.y
      value: 0
      objectReference: {fileID: 0}
    - target: {fileID: 4833440451213438, guid: 4ffaa291e78a048ca992daa089e91cb8, type: 2}
      propertyPath: m_LocalPosition.z
      value: 0
      objectReference: {fileID: 0}
    - target: {fileID: 4833440451213438, guid: 4ffaa291e78a048ca992daa089e91cb8, type: 2}
      propertyPath: m_LocalRotation.x
      value: 0
      objectReference: {fileID: 0}
    - target: {fileID: 4833440451213438, guid: 4ffaa291e78a048ca992daa089e91cb8, type: 2}
      propertyPath: m_LocalRotation.y
      value: 0
      objectReference: {fileID: 0}
    - target: {fileID: 4833440451213438, guid: 4ffaa291e78a048ca992daa089e91cb8, type: 2}
      propertyPath: m_LocalRotation.z
      value: 0
      objectReference: {fileID: 0}
    - target: {fileID: 4833440451213438, guid: 4ffaa291e78a048ca992daa089e91cb8, type: 2}
      propertyPath: m_LocalRotation.w
      value: 1
      objectReference: {fileID: 0}
    - target: {fileID: 4833440451213438, guid: 4ffaa291e78a048ca992daa089e91cb8, type: 2}
      propertyPath: m_RootOrder
      value: 0
      objectReference: {fileID: 0}
    - target: {fileID: 1551258948255384, guid: 4ffaa291e78a048ca992daa089e91cb8, type: 2}
      propertyPath: m_Layer
      value: 16
      objectReference: {fileID: 0}
    - target: {fileID: 20696386057870214, guid: 4ffaa291e78a048ca992daa089e91cb8,
        type: 2}
      propertyPath: m_CullingMask.m_Bits
      value: 66560
      objectReference: {fileID: 0}
    - target: {fileID: 20874333328126836, guid: 4ffaa291e78a048ca992daa089e91cb8,
        type: 2}
      propertyPath: m_CullingMask.m_Bits
      value: 133120
      objectReference: {fileID: 0}
    m_RemovedComponents: []
  m_ParentPrefab: {fileID: 100100000, guid: 4ffaa291e78a048ca992daa089e91cb8, type: 2}
  m_IsPrefabParent: 0
--- !u!1 &1422466529 stripped
GameObject:
  m_PrefabParentObject: {fileID: 1132254157594180, guid: 4ffaa291e78a048ca992daa089e91cb8,
    type: 2}
  m_PrefabInternal: {fileID: 1422466528}
--- !u!1 &1422466530 stripped
GameObject:
  m_PrefabParentObject: {fileID: 1551258948255384, guid: 4ffaa291e78a048ca992daa089e91cb8,
    type: 2}
  m_PrefabInternal: {fileID: 1422466528}
--- !u!114 &1422466531
MonoBehaviour:
  m_ObjectHideFlags: 0
  m_PrefabParentObject: {fileID: 0}
  m_PrefabInternal: {fileID: 0}
  m_GameObject: {fileID: 1422466529}
  m_Enabled: 1
  m_EditorHideFlags: 0
  m_Script: {fileID: 1742909100, guid: 3a84de5cd0624681b6b6dcd8921d912a, type: 3}
  m_Name: 
  m_EditorClassIdentifier: 
  m_Device: 0
  m_PoseSource: 1
  m_TrackingType: 2
  m_UpdateType: 0
  m_UseRelativeTransform: 1
--- !u!114 &1422466532
MonoBehaviour:
  m_ObjectHideFlags: 0
  m_PrefabParentObject: {fileID: 0}
  m_PrefabInternal: {fileID: 0}
  m_GameObject: {fileID: 1422466530}
  m_Enabled: 1
  m_EditorHideFlags: 0
  m_Script: {fileID: 1742909100, guid: 3a84de5cd0624681b6b6dcd8921d912a, type: 3}
  m_Name: 
  m_EditorClassIdentifier: 
  m_Device: 0
  m_PoseSource: 0
  m_TrackingType: 2
  m_UpdateType: 0
  m_UseRelativeTransform: 1
--- !u!1001 &1632978745
Prefab:
  m_ObjectHideFlags: 0
  serializedVersion: 2
  m_Modification:
    m_TransformParent: {fileID: 0}
    m_Modifications:
    - target: {fileID: 4544410619541536, guid: a34af8f80e5394a479fb1fbac1c1dac1, type: 2}
      propertyPath: m_LocalPosition.x
      value: 0
      objectReference: {fileID: 0}
    - target: {fileID: 4544410619541536, guid: a34af8f80e5394a479fb1fbac1c1dac1, type: 2}
      propertyPath: m_LocalPosition.y
      value: -150
      objectReference: {fileID: 0}
    - target: {fileID: 4544410619541536, guid: a34af8f80e5394a479fb1fbac1c1dac1, type: 2}
      propertyPath: m_LocalPosition.z
      value: 500
      objectReference: {fileID: 0}
    - target: {fileID: 4544410619541536, guid: a34af8f80e5394a479fb1fbac1c1dac1, type: 2}
      propertyPath: m_LocalRotation.x
      value: 0
      objectReference: {fileID: 0}
    - target: {fileID: 4544410619541536, guid: a34af8f80e5394a479fb1fbac1c1dac1, type: 2}
      propertyPath: m_LocalRotation.y
      value: 0
      objectReference: {fileID: 0}
    - target: {fileID: 4544410619541536, guid: a34af8f80e5394a479fb1fbac1c1dac1, type: 2}
      propertyPath: m_LocalRotation.z
      value: 0
      objectReference: {fileID: 0}
    - target: {fileID: 4544410619541536, guid: a34af8f80e5394a479fb1fbac1c1dac1, type: 2}
      propertyPath: m_LocalRotation.w
      value: 1
      objectReference: {fileID: 0}
    - target: {fileID: 4544410619541536, guid: a34af8f80e5394a479fb1fbac1c1dac1, type: 2}
      propertyPath: m_RootOrder
      value: 1
      objectReference: {fileID: 0}
    - target: {fileID: 4544410619541536, guid: a34af8f80e5394a479fb1fbac1c1dac1, type: 2}
      propertyPath: m_LocalEulerAnglesHint.x
      value: 0
      objectReference: {fileID: 0}
    - target: {fileID: 4544410619541536, guid: a34af8f80e5394a479fb1fbac1c1dac1, type: 2}
      propertyPath: m_LocalScale.y
      value: 200
      objectReference: {fileID: 0}
    - target: {fileID: 4544410619541536, guid: a34af8f80e5394a479fb1fbac1c1dac1, type: 2}
      propertyPath: m_LocalScale.x
      value: 15
      objectReference: {fileID: 0}
    - target: {fileID: 23651477328211722, guid: a34af8f80e5394a479fb1fbac1c1dac1,
        type: 2}
      propertyPath: m_Materials.Array.data[0]
      value: 
      objectReference: {fileID: 2100000, guid: 14b3e7c4640f65948a39b0d4981b14b2, type: 2}
    m_RemovedComponents: []
  m_ParentPrefab: {fileID: 100100000, guid: a34af8f80e5394a479fb1fbac1c1dac1, type: 2}
  m_IsPrefabParent: 0
