%YAML 1.1
%TAG !u! tag:unity3d.com,2011:
--- !u!29 &1
OcclusionCullingSettings:
  m_ObjectHideFlags: 0
  serializedVersion: 2
  m_OcclusionBakeSettings:
    smallestOccluder: 5
    smallestHole: 0.25
    backfaceThreshold: 100
  m_SceneGUID: 00000000000000000000000000000000
  m_OcclusionCullingData: {fileID: 0}
--- !u!104 &2
RenderSettings:
  m_ObjectHideFlags: 0
  serializedVersion: 9
  m_Fog: 0
  m_FogColor: {r: 0.5, g: 0.5, b: 0.5, a: 1}
  m_FogMode: 3
  m_FogDensity: 0.01
  m_LinearFogStart: 0
  m_LinearFogEnd: 300
  m_AmbientSkyColor: {r: 0.212, g: 0.227, b: 0.259, a: 1}
  m_AmbientEquatorColor: {r: 0.114, g: 0.125, b: 0.133, a: 1}
  m_AmbientGroundColor: {r: 0.047, g: 0.043, b: 0.035, a: 1}
  m_AmbientIntensity: 1
  m_AmbientMode: 0
  m_SubtractiveShadowColor: {r: 0.42, g: 0.478, b: 0.627, a: 1}
  m_SkyboxMaterial: {fileID: 10304, guid: 0000000000000000f000000000000000, type: 0}
  m_HaloStrength: 0.5
  m_FlareStrength: 1
  m_FlareFadeSpeed: 3
  m_HaloTexture: {fileID: 0}
  m_SpotCookie: {fileID: 10001, guid: 0000000000000000e000000000000000, type: 0}
  m_DefaultReflectionMode: 0
  m_DefaultReflectionResolution: 128
  m_ReflectionBounces: 1
  m_ReflectionIntensity: 1
  m_CustomReflection: {fileID: 0}
  m_Sun: {fileID: 0}
  m_IndirectSpecularColor: {r: 0.12731753, g: 0.13414776, b: 0.121078834, a: 1}
  m_UseRadianceAmbientProbe: 0
--- !u!157 &3
LightmapSettings:
  m_ObjectHideFlags: 0
  serializedVersion: 11
  m_GIWorkflowMode: 0
  m_GISettings:
    serializedVersion: 2
    m_BounceScale: 1
    m_IndirectOutputScale: 1
    m_AlbedoBoost: 1
    m_TemporalCoherenceThreshold: 1
    m_EnvironmentLightingMode: 0
    m_EnableBakedLightmaps: 1
    m_EnableRealtimeLightmaps: 1
  m_LightmapEditorSettings:
    serializedVersion: 10
    m_Resolution: 2
    m_BakeResolution: 40
    m_AtlasSize: 1024
    m_AO: 0
    m_AOMaxDistance: 1
    m_CompAOExponent: 1
    m_CompAOExponentDirect: 0
    m_Padding: 2
    m_LightmapParameters: {fileID: 0}
    m_LightmapsBakeMode: 1
    m_TextureCompression: 1
    m_FinalGather: 0
    m_FinalGatherFiltering: 1
    m_FinalGatherRayCount: 256
    m_ReflectionCompression: 2
    m_MixedBakeMode: 2
    m_BakeBackend: 1
    m_PVRSampling: 1
    m_PVRDirectSampleCount: 32
    m_PVRSampleCount: 500
    m_PVRBounces: 2
    m_PVRFilterTypeDirect: 0
    m_PVRFilterTypeIndirect: 0
    m_PVRFilterTypeAO: 0
    m_PVRFilteringMode: 1
    m_PVRCulling: 1
    m_PVRFilteringGaussRadiusDirect: 1
    m_PVRFilteringGaussRadiusIndirect: 5
    m_PVRFilteringGaussRadiusAO: 2
    m_PVRFilteringAtrousPositionSigmaDirect: 0.5
    m_PVRFilteringAtrousPositionSigmaIndirect: 2
    m_PVRFilteringAtrousPositionSigmaAO: 1
    m_ShowResolutionOverlay: 1
  m_LightingDataAsset: {fileID: 0}
  m_UseShadowmask: 1
--- !u!196 &4
NavMeshSettings:
  serializedVersion: 2
  m_ObjectHideFlags: 0
  m_BuildSettings:
    serializedVersion: 2
    agentTypeID: 0
    agentRadius: 0.5
    agentHeight: 2
    agentSlope: 45
    agentClimb: 0.4
    ledgeDropHeight: 0
    maxJumpAcrossDistance: 0
    minRegionArea: 2
    manualCellSize: 0
    cellSize: 0.16666667
    manualTileSize: 0
    tileSize: 256
    accuratePlacement: 0
    debug:
      m_Flags: 0
  m_NavMeshData: {fileID: 0}
--- !u!1 &61627775
GameObject:
  m_ObjectHideFlags: 0
  m_CorrespondingSourceObject: {fileID: 0}
  m_PrefabInternal: {fileID: 0}
  serializedVersion: 6
  m_Component:
  - component: {fileID: 61627776}
  m_Layer: 0
  m_Name: Controller
  m_TagString: Untagged
  m_Icon: {fileID: 0}
  m_NavMeshLayer: 0
  m_StaticEditorFlags: 0
  m_IsActive: 1
--- !u!4 &61627776
Transform:
  m_ObjectHideFlags: 0
  m_CorrespondingSourceObject: {fileID: 0}
  m_PrefabInternal: {fileID: 0}
  m_GameObject: {fileID: 61627775}
  m_LocalRotation: {x: 0, y: 0, z: 0, w: 1}
  m_LocalPosition: {x: 0, y: 0, z: 6.92}
  m_LocalScale: {x: 1, y: 1, z: 1}
  m_Children:
  - {fileID: 874439013}
  - {fileID: 1054609527}
  - {fileID: 537236738}
  m_Father: {fileID: 0}
  m_RootOrder: 2
  m_LocalEulerAnglesHint: {x: 0, y: 0, z: 0}
--- !u!1 &163724113 stripped
GameObject:
  m_CorrespondingSourceObject: {fileID: 1688996390354398, guid: dc0e151835720410caba21de570cce80,
    type: 2}
  m_PrefabInternal: {fileID: 610976314}
--- !u!1 &337321574 stripped
GameObject:
  m_CorrespondingSourceObject: {fileID: 1688996390354398, guid: dc0e151835720410caba21de570cce80,
    type: 2}
  m_PrefabInternal: {fileID: 1713539453}
--- !u!1 &537236735
GameObject:
  m_ObjectHideFlags: 0
  m_CorrespondingSourceObject: {fileID: 0}
  m_PrefabInternal: {fileID: 0}
  serializedVersion: 6
  m_Component:
  - component: {fileID: 537236738}
  - component: {fileID: 537236737}
  - component: {fileID: 537236736}
  m_Layer: 0
  m_Name: DiamondDepthController
  m_TagString: Untagged
  m_Icon: {fileID: 0}
  m_NavMeshLayer: 0
  m_StaticEditorFlags: 0
  m_IsActive: 1
--- !u!114 &537236736
MonoBehaviour:
  m_ObjectHideFlags: 0
  m_CorrespondingSourceObject: {fileID: 0}
  m_PrefabInternal: {fileID: 0}
  m_GameObject: {fileID: 537236735}
  m_Enabled: 1
  m_EditorHideFlags: 0
  m_Script: {fileID: 11500000, guid: 461cebb95213447e7a2a13fceb80b52b, type: 3}
  m_Name: 
  m_EditorClassIdentifier: 
  trackedCamera: {fileID: 1859132117}
  initialActivationDelayInSeconds: 1
  samplingFrequency: 0.05
  maxQueueSize: 30
  motionDeltaSensitivity: 2
  shakeTravel: 6
--- !u!114 &537236737
MonoBehaviour:
  m_ObjectHideFlags: 0
  m_CorrespondingSourceObject: {fileID: 0}
  m_PrefabInternal: {fileID: 0}
  m_GameObject: {fileID: 537236735}
  m_Enabled: 1
  m_EditorHideFlags: 0
  m_Script: {fileID: 11500000, guid: 4b4481843f4904220b58ecc7f21af379, type: 3}
  m_Name: 
  m_EditorClassIdentifier: 
  parts:
  - {fileID: 337321574}
  - {fileID: 1507272463}
  - {fileID: 163724113}
  - {fileID: 1571764235}
  depthParts: {fileID: 652578846}
  selectByCross: {fileID: 537236736}
  trials: 10
  maxSeparation: 0.2
  minSeparation: 0
--- !u!4 &537236738
Transform:
  m_ObjectHideFlags: 0
  m_CorrespondingSourceObject: {fileID: 0}
  m_PrefabInternal: {fileID: 0}
  m_GameObject: {fileID: 537236735}
  m_LocalRotation: {x: 0, y: 0, z: 0, w: 1}
  m_LocalPosition: {x: -0.71000004, y: 0, z: -4.67}
  m_LocalScale: {x: 1, y: 1, z: 1}
  m_Children: []
  m_Father: {fileID: 61627776}
  m_RootOrder: 2
  m_LocalEulerAnglesHint: {x: 0, y: 0, z: 0}
--- !u!1001 &610976314
Prefab:
  m_ObjectHideFlags: 0
  serializedVersion: 2
  m_Modification:
    m_TransformParent: {fileID: 652578847}
    m_Modifications:
    - target: {fileID: 4007553603725464, guid: dc0e151835720410caba21de570cce80, type: 2}
      propertyPath: m_LocalPosition.x
      value: 1
      objectReference: {fileID: 0}
    - target: {fileID: 4007553603725464, guid: dc0e151835720410caba21de570cce80, type: 2}
      propertyPath: m_LocalPosition.y
      value: 0
      objectReference: {fileID: 0}
    - target: {fileID: 4007553603725464, guid: dc0e151835720410caba21de570cce80, type: 2}
      propertyPath: m_LocalPosition.z
      value: 0
      objectReference: {fileID: 0}
    - target: {fileID: 4007553603725464, guid: dc0e151835720410caba21de570cce80, type: 2}
      propertyPath: m_LocalRotation.x
      value: -0
      objectReference: {fileID: 0}
    - target: {fileID: 4007553603725464, guid: dc0e151835720410caba21de570cce80, type: 2}
      propertyPath: m_LocalRotation.y
      value: -0
      objectReference: {fileID: 0}
    - target: {fileID: 4007553603725464, guid: dc0e151835720410caba21de570cce80, type: 2}
      propertyPath: m_LocalRotation.z
      value: -0
      objectReference: {fileID: 0}
    - target: {fileID: 4007553603725464, guid: dc0e151835720410caba21de570cce80, type: 2}
      propertyPath: m_LocalRotation.w
      value: 1
      objectReference: {fileID: 0}
    - target: {fileID: 4007553603725464, guid: dc0e151835720410caba21de570cce80, type: 2}
      propertyPath: m_RootOrder
      value: 2
      objectReference: {fileID: 0}
    - target: {fileID: 1688996390354398, guid: dc0e151835720410caba21de570cce80, type: 2}
      propertyPath: m_Name
      value: right
      objectReference: {fileID: 0}
    - target: {fileID: 212661661050767592, guid: dc0e151835720410caba21de570cce80,
        type: 2}
      propertyPath: m_Sprite
      value: 
      objectReference: {fileID: 21300040, guid: 871b072493aa3d54dafcbddb37ba73f5,
        type: 3}
    - target: {fileID: 212699088681805960, guid: dc0e151835720410caba21de570cce80,
        type: 2}
      propertyPath: m_Sprite
      value: 
      objectReference: {fileID: 21300040, guid: 871b072493aa3d54dafcbddb37ba73f5,
        type: 3}
    - target: {fileID: 1757353658862634, guid: dc0e151835720410caba21de570cce80, type: 2}
      propertyPath: m_Name
      value: asset-default
      objectReference: {fileID: 0}
    - target: {fileID: 1273188027447870, guid: dc0e151835720410caba21de570cce80, type: 2}
      propertyPath: m_Name
      value: asset-children
      objectReference: {fileID: 0}
    - target: {fileID: 1681851131022526, guid: dc0e151835720410caba21de570cce80, type: 2}
      propertyPath: m_Name
      value: asset-default
      objectReference: {fileID: 0}
    - target: {fileID: 1193882383229868, guid: dc0e151835720410caba21de570cce80, type: 2}
      propertyPath: m_Name
      value: asset-children
      objectReference: {fileID: 0}
    m_RemovedComponents: []
  m_SourcePrefab: {fileID: 100100000, guid: dc0e151835720410caba21de570cce80, type: 2}
  m_IsPrefabAsset: 0
--- !u!4 &610976315 stripped
Transform:
  m_CorrespondingSourceObject: {fileID: 4007553603725464, guid: dc0e151835720410caba21de570cce80,
    type: 2}
  m_PrefabInternal: {fileID: 610976314}
--- !u!1 &652578846
GameObject:
  m_ObjectHideFlags: 0
  m_CorrespondingSourceObject: {fileID: 0}
  m_PrefabInternal: {fileID: 0}
  serializedVersion: 6
  m_Component:
  - component: {fileID: 652578847}
  m_Layer: 18
  m_Name: depthParts
  m_TagString: Untagged
  m_Icon: {fileID: 0}
  m_NavMeshLayer: 0
  m_StaticEditorFlags: 0
  m_IsActive: 1
--- !u!4 &652578847
Transform:
  m_ObjectHideFlags: 0
  m_CorrespondingSourceObject: {fileID: 0}
  m_PrefabInternal: {fileID: 0}
  m_GameObject: {fileID: 652578846}
  m_LocalRotation: {x: -0, y: -0, z: -0, w: 1}
  m_LocalPosition: {x: 0, y: 0, z: -1.64}
  m_LocalScale: {x: 1, y: 1, z: 1}
  m_Children:
  - {fileID: 1713539454}
  - {fileID: 1677224970}
  - {fileID: 610976315}
  - {fileID: 1901476406}
  m_Father: {fileID: 1906669441}
  m_RootOrder: 0
  m_LocalEulerAnglesHint: {x: 0, y: 0, z: 0}
--- !u!4 &874439013 stripped
Transform:
  m_CorrespondingSourceObject: {fileID: 4296779927370026, guid: 1a727c3206aa4224d965a3733c14ae6b,
    type: 2}
  m_PrefabInternal: {fileID: 1565222348}
--- !u!4 &1054609527 stripped
Transform:
  m_CorrespondingSourceObject: {fileID: 4000012185119224, guid: ce7abbbeb276a1547bd8ce1069fdabb7,
    type: 2}
  m_PrefabInternal: {fileID: 1703966099}
--- !u!1 &1507272463 stripped
GameObject:
  m_CorrespondingSourceObject: {fileID: 1688996390354398, guid: dc0e151835720410caba21de570cce80,
    type: 2}
  m_PrefabInternal: {fileID: 1677224969}
--- !u!1001 &1565222348
Prefab:
  m_ObjectHideFlags: 0
  serializedVersion: 2
  m_Modification:
    m_TransformParent: {fileID: 61627776}
    m_Modifications:
    - target: {fileID: 4296779927370026, guid: 1a727c3206aa4224d965a3733c14ae6b, type: 2}
      propertyPath: m_LocalPosition.x
      value: 0
      objectReference: {fileID: 0}
    - target: {fileID: 4296779927370026, guid: 1a727c3206aa4224d965a3733c14ae6b, type: 2}
      propertyPath: m_LocalPosition.y
      value: 0
      objectReference: {fileID: 0}
    - target: {fileID: 4296779927370026, guid: 1a727c3206aa4224d965a3733c14ae6b, type: 2}
      propertyPath: m_LocalPosition.z
      value: -6.92
      objectReference: {fileID: 0}
    - target: {fileID: 4296779927370026, guid: 1a727c3206aa4224d965a3733c14ae6b, type: 2}
      propertyPath: m_LocalRotation.x
      value: -0
      objectReference: {fileID: 0}
    - target: {fileID: 4296779927370026, guid: 1a727c3206aa4224d965a3733c14ae6b, type: 2}
      propertyPath: m_LocalRotation.y
      value: -0
      objectReference: {fileID: 0}
    - target: {fileID: 4296779927370026, guid: 1a727c3206aa4224d965a3733c14ae6b, type: 2}
      propertyPath: m_LocalRotation.z
      value: -0
      objectReference: {fileID: 0}
    - target: {fileID: 4296779927370026, guid: 1a727c3206aa4224d965a3733c14ae6b, type: 2}
      propertyPath: m_LocalRotation.w
      value: 1
      objectReference: {fileID: 0}
    - target: {fileID: 4296779927370026, guid: 1a727c3206aa4224d965a3733c14ae6b, type: 2}
      propertyPath: m_RootOrder
      value: 0
      objectReference: {fileID: 0}
    m_RemovedComponents: []
  m_SourcePrefab: {fileID: 100100000, guid: 1a727c3206aa4224d965a3733c14ae6b, type: 2}
  m_IsPrefabAsset: 0
--- !u!1 &1571764235 stripped
GameObject:
  m_CorrespondingSourceObject: {fileID: 1688996390354398, guid: dc0e151835720410caba21de570cce80,
    type: 2}
  m_PrefabInternal: {fileID: 1901476405}
--- !u!1001 &1677224969
Prefab:
  m_ObjectHideFlags: 0
  serializedVersion: 2
  m_Modification:
    m_TransformParent: {fileID: 652578847}
    m_Modifications:
    - target: {fileID: 4007553603725464, guid: dc0e151835720410caba21de570cce80, type: 2}
      propertyPath: m_LocalPosition.x
      value: 0
      objectReference: {fileID: 0}
    - target: {fileID: 4007553603725464, guid: dc0e151835720410caba21de570cce80, type: 2}
      propertyPath: m_LocalPosition.y
      value: -1
      objectReference: {fileID: 0}
    - target: {fileID: 4007553603725464, guid: dc0e151835720410caba21de570cce80, type: 2}
      propertyPath: m_LocalPosition.z
      value: 0
      objectReference: {fileID: 0}
    - target: {fileID: 4007553603725464, guid: dc0e151835720410caba21de570cce80, type: 2}
      propertyPath: m_LocalRotation.x
      value: -0
      objectReference: {fileID: 0}
    - target: {fileID: 4007553603725464, guid: dc0e151835720410caba21de570cce80, type: 2}
      propertyPath: m_LocalRotation.y
      value: -0
      objectReference: {fileID: 0}
    - target: {fileID: 4007553603725464, guid: dc0e151835720410caba21de570cce80, type: 2}
      propertyPath: m_LocalRotation.z
      value: -0
      objectReference: {fileID: 0}
    - target: {fileID: 4007553603725464, guid: dc0e151835720410caba21de570cce80, type: 2}
      propertyPath: m_LocalRotation.w
      value: 1
      objectReference: {fileID: 0}
    - target: {fileID: 4007553603725464, guid: dc0e151835720410caba21de570cce80, type: 2}
      propertyPath: m_RootOrder
      value: 1
      objectReference: {fileID: 0}
    - target: {fileID: 1688996390354398, guid: dc0e151835720410caba21de570cce80, type: 2}
      propertyPath: m_Name
      value: bottom
      objectReference: {fileID: 0}
    - target: {fileID: 212661661050767592, guid: dc0e151835720410caba21de570cce80,
        type: 2}
      propertyPath: m_Sprite
      value: 
      objectReference: {fileID: 21300038, guid: 871b072493aa3d54dafcbddb37ba73f5,
        type: 3}
    - target: {fileID: 212699088681805960, guid: dc0e151835720410caba21de570cce80,
        type: 2}
      propertyPath: m_Sprite
      value: 
      objectReference: {fileID: 21300038, guid: 871b072493aa3d54dafcbddb37ba73f5,
        type: 3}
    - target: {fileID: 1757353658862634, guid: dc0e151835720410caba21de570cce80, type: 2}
      propertyPath: m_Name
      value: asset-default
      objectReference: {fileID: 0}
    - target: {fileID: 1273188027447870, guid: dc0e151835720410caba21de570cce80, type: 2}
      propertyPath: m_Name
      value: asset-children
      objectReference: {fileID: 0}
    - target: {fileID: 1681851131022526, guid: dc0e151835720410caba21de570cce80, type: 2}
      propertyPath: m_Name
      value: asset-default
      objectReference: {fileID: 0}
    - target: {fileID: 1193882383229868, guid: dc0e151835720410caba21de570cce80, type: 2}
      propertyPath: m_Name
      value: asset-children
      objectReference: {fileID: 0}
    m_RemovedComponents: []
  m_SourcePrefab: {fileID: 100100000, guid: dc0e151835720410caba21de570cce80, type: 2}
  m_IsPrefabAsset: 0
--- !u!4 &1677224970 stripped
Transform:
  m_CorrespondingSourceObject: {fileID: 4007553603725464, guid: dc0e151835720410caba21de570cce80,
    type: 2}
  m_PrefabInternal: {fileID: 1677224969}
--- !u!1001 &1703966099
Prefab:
  m_ObjectHideFlags: 0
  serializedVersion: 2
  m_Modification:
    m_TransformParent: {fileID: 61627776}
    m_Modifications:
    - target: {fileID: 4000012185119224, guid: ce7abbbeb276a1547bd8ce1069fdabb7, type: 2}
      propertyPath: m_LocalPosition.x
      value: 0
      objectReference: {fileID: 0}
    - target: {fileID: 4000012185119224, guid: ce7abbbeb276a1547bd8ce1069fdabb7, type: 2}
      propertyPath: m_LocalPosition.y
      value: 0
      objectReference: {fileID: 0}
    - target: {fileID: 4000012185119224, guid: ce7abbbeb276a1547bd8ce1069fdabb7, type: 2}
      propertyPath: m_LocalPosition.z
      value: -6.92
      objectReference: {fileID: 0}
    - target: {fileID: 4000012185119224, guid: ce7abbbeb276a1547bd8ce1069fdabb7, type: 2}
      propertyPath: m_LocalRotation.x
      value: -0
      objectReference: {fileID: 0}
    - target: {fileID: 4000012185119224, guid: ce7abbbeb276a1547bd8ce1069fdabb7, type: 2}
      propertyPath: m_LocalRotation.y
      value: -0
      objectReference: {fileID: 0}
    - target: {fileID: 4000012185119224, guid: ce7abbbeb276a1547bd8ce1069fdabb7, type: 2}
      propertyPath: m_LocalRotation.z
      value: -0
      objectReference: {fileID: 0}
    - target: {fileID: 4000012185119224, guid: ce7abbbeb276a1547bd8ce1069fdabb7, type: 2}
      propertyPath: m_LocalRotation.w
      value: 1
      objectReference: {fileID: 0}
    - target: {fileID: 4000012185119224, guid: ce7abbbeb276a1547bd8ce1069fdabb7, type: 2}
      propertyPath: m_RootOrder
      value: 1
      objectReference: {fileID: 0}
    - target: {fileID: 1000013061525784, guid: ce7abbbeb276a1547bd8ce1069fdabb7, type: 2}
      propertyPath: m_IsActive
      value: 0
      objectReference: {fileID: 0}
    m_RemovedComponents: []
  m_SourcePrefab: {fileID: 100100000, guid: ce7abbbeb276a1547bd8ce1069fdabb7, type: 2}
  m_IsPrefabAsset: 0
--- !u!1001 &1713539453
Prefab:
  m_ObjectHideFlags: 0
  serializedVersion: 2
  m_Modification:
    m_TransformParent: {fileID: 652578847}
    m_Modifications:
    - target: {fileID: 4007553603725464, guid: dc0e151835720410caba21de570cce80, type: 2}
      propertyPath: m_LocalPosition.x
      value: 0
      objectReference: {fileID: 0}
    - target: {fileID: 4007553603725464, guid: dc0e151835720410caba21de570cce80, type: 2}
      propertyPath: m_LocalPosition.y
      value: 1
      objectReference: {fileID: 0}
    - target: {fileID: 4007553603725464, guid: dc0e151835720410caba21de570cce80, type: 2}
      propertyPath: m_LocalPosition.z
      value: 0
      objectReference: {fileID: 0}
    - target: {fileID: 4007553603725464, guid: dc0e151835720410caba21de570cce80, type: 2}
      propertyPath: m_LocalRotation.x
      value: -0
      objectReference: {fileID: 0}
    - target: {fileID: 4007553603725464, guid: dc0e151835720410caba21de570cce80, type: 2}
      propertyPath: m_LocalRotation.y
      value: -0
      objectReference: {fileID: 0}
    - target: {fileID: 4007553603725464, guid: dc0e151835720410caba21de570cce80, type: 2}
      propertyPath: m_LocalRotation.z
      value: -0
      objectReference: {fileID: 0}
    - target: {fileID: 4007553603725464, guid: dc0e151835720410caba21de570cce80, type: 2}
      propertyPath: m_LocalRotation.w
      value: 1
      objectReference: {fileID: 0}
    - target: {fileID: 4007553603725464, guid: dc0e151835720410caba21de570cce80, type: 2}
      propertyPath: m_RootOrder
      value: 0
      objectReference: {fileID: 0}
    - target: {fileID: 1688996390354398, guid: dc0e151835720410caba21de570cce80, type: 2}
      propertyPath: m_Name
      value: top
      objectReference: {fileID: 0}
    - target: {fileID: 1757353658862634, guid: dc0e151835720410caba21de570cce80, type: 2}
      propertyPath: m_Name
      value: asset-default
      objectReference: {fileID: 0}
    - target: {fileID: 1273188027447870, guid: dc0e151835720410caba21de570cce80, type: 2}
      propertyPath: m_Name
      value: asset-children
      objectReference: {fileID: 0}
    - target: {fileID: 1681851131022526, guid: dc0e151835720410caba21de570cce80, type: 2}
      propertyPath: m_Name
      value: asset-default
      objectReference: {fileID: 0}
    - target: {fileID: 1193882383229868, guid: dc0e151835720410caba21de570cce80, type: 2}
      propertyPath: m_Name
      value: asset-children
      objectReference: {fileID: 0}
    - target: {fileID: 1193882383229868, guid: dc0e151835720410caba21de570cce80, type: 2}
      propertyPath: m_IsActive
      value: 1
      objectReference: {fileID: 0}
    - target: {fileID: 1273188027447870, guid: dc0e151835720410caba21de570cce80, type: 2}
      propertyPath: m_IsActive
      value: 1
      objectReference: {fileID: 0}
    - target: {fileID: 212661661050767592, guid: dc0e151835720410caba21de570cce80,
        type: 2}
      propertyPath: m_Sprite
      value: 
      objectReference: {fileID: 21300036, guid: 871b072493aa3d54dafcbddb37ba73f5,
        type: 3}
    - target: {fileID: 212699088681805960, guid: dc0e151835720410caba21de570cce80,
        type: 2}
      propertyPath: m_Sprite
      value: 
      objectReference: {fileID: 21300036, guid: 871b072493aa3d54dafcbddb37ba73f5,
        type: 3}
    m_RemovedComponents: []
  m_SourcePrefab: {fileID: 100100000, guid: dc0e151835720410caba21de570cce80, type: 2}
  m_IsPrefabAsset: 0
--- !u!4 &1713539454 stripped
Transform:
  m_CorrespondingSourceObject: {fileID: 4007553603725464, guid: dc0e151835720410caba21de570cce80,
    type: 2}
  m_PrefabInternal: {fileID: 1713539453}
--- !u!1001 &1723498766
Prefab:
  m_ObjectHideFlags: 0
  serializedVersion: 2
  m_Modification:
    m_TransformParent: {fileID: 1919191542}
    m_Modifications:
    - target: {fileID: 4208155657222638, guid: bcf9d98f1b9a06b4fa03a57ce4dbf189, type: 2}
      propertyPath: m_LocalPosition.x
      value: 0
      objectReference: {fileID: 0}
    - target: {fileID: 4208155657222638, guid: bcf9d98f1b9a06b4fa03a57ce4dbf189, type: 2}
      propertyPath: m_LocalPosition.y
      value: 0
      objectReference: {fileID: 0}
    - target: {fileID: 4208155657222638, guid: bcf9d98f1b9a06b4fa03a57ce4dbf189, type: 2}
      propertyPath: m_LocalPosition.z
      value: -6.92
      objectReference: {fileID: 0}
    - target: {fileID: 4208155657222638, guid: bcf9d98f1b9a06b4fa03a57ce4dbf189, type: 2}
      propertyPath: m_LocalRotation.x
      value: -0
      objectReference: {fileID: 0}
    - target: {fileID: 4208155657222638, guid: bcf9d98f1b9a06b4fa03a57ce4dbf189, type: 2}
      propertyPath: m_LocalRotation.y
      value: -0
      objectReference: {fileID: 0}
    - target: {fileID: 4208155657222638, guid: bcf9d98f1b9a06b4fa03a57ce4dbf189, type: 2}
      propertyPath: m_LocalRotation.z
      value: -0
      objectReference: {fileID: 0}
    - target: {fileID: 4208155657222638, guid: bcf9d98f1b9a06b4fa03a57ce4dbf189, type: 2}
      propertyPath: m_LocalRotation.w
      value: 1
      objectReference: {fileID: 0}
    - target: {fileID: 4208155657222638, guid: bcf9d98f1b9a06b4fa03a57ce4dbf189, type: 2}
      propertyPath: m_RootOrder
      value: 0
      objectReference: {fileID: 0}
    - target: {fileID: 114203749669615822, guid: bcf9d98f1b9a06b4fa03a57ce4dbf189,
        type: 2}
      propertyPath: mainSceneController
      value: 
      objectReference: {fileID: 537236735}
    - target: {fileID: 114284410481340016, guid: bcf9d98f1b9a06b4fa03a57ce4dbf189,
        type: 2}
      propertyPath: trackLeftEyeRotation
      value: 0
      objectReference: {fileID: 0}
    - target: {fileID: 114284410481340016, guid: bcf9d98f1b9a06b4fa03a57ce4dbf189,
        type: 2}
      propertyPath: trackRightEyeRotation
      value: 0
      objectReference: {fileID: 0}
    m_RemovedComponents: []
  m_SourcePrefab: {fileID: 100100000, guid: bcf9d98f1b9a06b4fa03a57ce4dbf189, type: 2}
  m_IsPrefabAsset: 0
--- !u!1 &1830607936
GameObject:
  m_ObjectHideFlags: 0
  m_CorrespondingSourceObject: {fileID: 0}
  m_PrefabInternal: {fileID: 0}
  serializedVersion: 6
  m_Component:
  - component: {fileID: 1830607938}
  - component: {fileID: 1830607937}
  m_Layer: 0
  m_Name: diamond
  m_TagString: Untagged
  m_Icon: {fileID: 0}
  m_NavMeshLayer: 0
  m_StaticEditorFlags: 0
  m_IsActive: 1
--- !u!212 &1830607937
SpriteRenderer:
  m_ObjectHideFlags: 0
  m_CorrespondingSourceObject: {fileID: 0}
  m_PrefabInternal: {fileID: 0}
  m_GameObject: {fileID: 1830607936}
  m_Enabled: 1
  m_CastShadows: 0
  m_ReceiveShadows: 0
  m_DynamicOccludee: 1
  m_MotionVectors: 1
  m_LightProbeUsage: 1
  m_ReflectionProbeUsage: 1
  m_RenderingLayerMask: 4294967295
  m_Materials:
  - {fileID: 10754, guid: 0000000000000000f000000000000000, type: 0}
  m_StaticBatchInfo:
    firstSubMesh: 0
    subMeshCount: 0
  m_StaticBatchRoot: {fileID: 0}
  m_ProbeAnchor: {fileID: 0}
  m_LightProbeVolumeOverride: {fileID: 0}
  m_ScaleInLightmap: 1
  m_PreserveUVs: 0
  m_IgnoreNormalsForChartDetection: 0
  m_ImportantGI: 0
  m_StitchLightmapSeams: 0
  m_SelectedEditorRenderState: 0
  m_MinimumChartSize: 4
  m_AutoUVMaxDistance: 0.5
  m_AutoUVMaxAngle: 89
  m_LightmapParameters: {fileID: 0}
  m_SortingLayerID: 0
  m_SortingLayer: 0
  m_SortingOrder: 0
  m_Sprite: {fileID: 21300000, guid: 70ed314f5b36e4425bc7581c2339bde6, type: 3}
  m_Color: {r: 1, g: 1, b: 1, a: 1}
  m_FlipX: 0
  m_FlipY: 0
  m_DrawMode: 0
  m_Size: {x: 21.15, y: 21.15}
  m_AdaptiveModeThreshold: 0.5
  m_SpriteTileMode: 0
  m_WasSpriteAssigned: 1
  m_MaskInteraction: 0
  m_SpriteSortPoint: 0
--- !u!4 &1830607938
Transform:
  m_ObjectHideFlags: 0
  m_CorrespondingSourceObject: {fileID: 0}
  m_PrefabInternal: {fileID: 0}
  m_GameObject: {fileID: 1830607936}
  m_LocalRotation: {x: -0, y: -0, z: -0, w: 1}
  m_LocalPosition: {x: 0, y: 0, z: -1.6399999}
  m_LocalScale: {x: 0.25, y: 0.25, z: 1}
  m_Children: []
  m_Father: {fileID: 1906669441}
  m_RootOrder: 1
  m_LocalEulerAnglesHint: {x: 0, y: 0, z: 0}
--- !u!1 &1859132117 stripped
GameObject:
  m_CorrespondingSourceObject: {fileID: 1527603079334400, guid: bcf9d98f1b9a06b4fa03a57ce4dbf189,
    type: 2}
  m_PrefabInternal: {fileID: 1723498766}
--- !u!1001 &1901476405
Prefab:
  m_ObjectHideFlags: 0
  serializedVersion: 2
  m_Modification:
    m_TransformParent: {fileID: 652578847}
    m_Modifications:
    - target: {fileID: 4007553603725464, guid: dc0e151835720410caba21de570cce80, type: 2}
      propertyPath: m_LocalPosition.x
      value: -1
      objectReference: {fileID: 0}
    - target: {fileID: 4007553603725464, guid: dc0e151835720410caba21de570cce80, type: 2}
      propertyPath: m_LocalPosition.y
      value: 0
      objectReference: {fileID: 0}
    - target: {fileID: 4007553603725464, guid: dc0e151835720410caba21de570cce80, type: 2}
      propertyPath: m_LocalPosition.z
      value: 0
      objectReference: {fileID: 0}
    - target: {fileID: 4007553603725464, guid: dc0e151835720410caba21de570cce80, type: 2}
      propertyPath: m_LocalRotation.x
      value: -0
      objectReference: {fileID: 0}
    - target: {fileID: 4007553603725464, guid: dc0e151835720410caba21de570cce80, type: 2}
      propertyPath: m_LocalRotation.y
      value: -0
      objectReference: {fileID: 0}
    - target: {fileID: 4007553603725464, guid: dc0e151835720410caba21de570cce80, type: 2}
      propertyPath: m_LocalRotation.z
      value: -0
      objectReference: {fileID: 0}
    - target: {fileID: 4007553603725464, guid: dc0e151835720410caba21de570cce80, type: 2}
      propertyPath: m_LocalRotation.w
      value: 1
      objectReference: {fileID: 0}
    - target: {fileID: 4007553603725464, guid: dc0e151835720410caba21de570cce80, type: 2}
      propertyPath: m_RootOrder
      value: 3
      objectReference: {fileID: 0}
    - target: {fileID: 1688996390354398, guid: dc0e151835720410caba21de570cce80, type: 2}
      propertyPath: m_Name
      value: left
      objectReference: {fileID: 0}
    - target: {fileID: 4655908114833134, guid: dc0e151835720410caba21de570cce80, type: 2}
      propertyPath: m_LocalScale.x
      value: 0.1
      objectReference: {fileID: 0}
    - target: {fileID: 4655908114833134, guid: dc0e151835720410caba21de570cce80, type: 2}
      propertyPath: m_LocalScale.y
      value: 0.1
      objectReference: {fileID: 0}
    - target: {fileID: 4655908114833134, guid: dc0e151835720410caba21de570cce80, type: 2}
      propertyPath: m_LocalScale.z
      value: 0.1
      objectReference: {fileID: 0}
    - target: {fileID: 212699088681805960, guid: dc0e151835720410caba21de570cce80,
        type: 2}
      propertyPath: m_Sprite
      value: 
      objectReference: {fileID: 21300042, guid: 871b072493aa3d54dafcbddb37ba73f5,
        type: 3}
    - target: {fileID: 212661661050767592, guid: dc0e151835720410caba21de570cce80,
        type: 2}
      propertyPath: m_Sprite
      value: 
      objectReference: {fileID: 21300042, guid: 871b072493aa3d54dafcbddb37ba73f5,
        type: 3}
    - target: {fileID: 1757353658862634, guid: dc0e151835720410caba21de570cce80, type: 2}
      propertyPath: m_Name
      value: asset-default
      objectReference: {fileID: 0}
    - target: {fileID: 1273188027447870, guid: dc0e151835720410caba21de570cce80, type: 2}
      propertyPath: m_Name
      value: asset-children
      objectReference: {fileID: 0}
    - target: {fileID: 1681851131022526, guid: dc0e151835720410caba21de570cce80, type: 2}
      propertyPath: m_Name
      value: asset-default
      objectReference: {fileID: 0}
    - target: {fileID: 1193882383229868, guid: dc0e151835720410caba21de570cce80, type: 2}
      propertyPath: m_Name
      value: asset-children
      objectReference: {fileID: 0}
    m_RemovedComponents: []
  m_SourcePrefab: {fileID: 100100000, guid: dc0e151835720410caba21de570cce80, type: 2}
  m_IsPrefabAsset: 0
--- !u!4 &1901476406 stripped
Transform:
  m_CorrespondingSourceObject: {fileID: 4007553603725464, guid: dc0e151835720410caba21de570cce80,
    type: 2}
  m_PrefabInternal: {fileID: 1901476405}
--- !u!1 &1906669440
GameObject:
  m_ObjectHideFlags: 0
  m_CorrespondingSourceObject: {fileID: 0}
  m_PrefabInternal: {fileID: 0}
  serializedVersion: 6
  m_Component:
  - component: {fileID: 1906669441}
  m_Layer: 0
  m_Name: View
  m_TagString: Untagged
  m_Icon: {fileID: 0}
  m_NavMeshLayer: 0
  m_StaticEditorFlags: 0
  m_IsActive: 1
--- !u!4 &1906669441
Transform:
  m_ObjectHideFlags: 0
  m_CorrespondingSourceObject: {fileID: 0}
  m_PrefabInternal: {fileID: 0}
  m_GameObject: {fileID: 1906669440}
  m_LocalRotation: {x: 0, y: 0, z: 0, w: 1}
  m_LocalPosition: {x: 0, y: 0, z: 6.92}
  m_LocalScale: {x: 1, y: 1, z: 1}
  m_Children:
  - {fileID: 652578847}
  - {fileID: 1830607938}
  m_Father: {fileID: 0}
  m_RootOrder: 0
  m_LocalEulerAnglesHint: {x: 0, y: 0, z: 0}
--- !u!1 &1919191541
GameObject:
  m_ObjectHideFlags: 0
  m_CorrespondingSourceObject: {fileID: 0}
  m_PrefabInternal: {fileID: 0}
  serializedVersion: 6
  m_Component:
  - component: {fileID: 1919191542}
  m_Layer: 0
  m_Name: Model
  m_TagString: Untagged
  m_Icon: {fileID: 0}
  m_NavMeshLayer: 0
  m_StaticEditorFlags: 0
  m_IsActive: 1
--- !u!4 &1919191542
Transform:
  m_ObjectHideFlags: 0
  m_CorrespondingSourceObject: {fileID: 0}
  m_PrefabInternal: {fileID: 0}
  m_GameObject: {fileID: 1919191541}
  m_LocalRotation: {x: -0, y: -0, z: -0, w: 1}
  m_LocalPosition: {x: 0, y: 0, z: 6.92}
  m_LocalScale: {x: 1, y: 1, z: 1}
  m_Children:
  - {fileID: 2061279216}
  m_Father: {fileID: 0}
  m_RootOrder: 1
  m_LocalEulerAnglesHint: {x: 0, y: 0, z: 0}
--- !u!4 &2061279216 stripped
Transform:
  m_CorrespondingSourceObject: {fileID: 4208155657222638, guid: bcf9d98f1b9a06b4fa03a57ce4dbf189,
    type: 2}
  m_PrefabInternal: {fileID: 1723498766}
